{
  "images" : [
    {
      "idiom" : "universal",
      "scale" : "1x",
      "filename" : "1427763226_share-24.png"
    },
    {
      "idiom" : "universal",
      "scale" : "2x",
      "filename" : "1427763236_share-48.png"
    },
    {
      "idiom" : "universal",
      "scale" : "3x",
      "filename" : "1427763236_share-72.png"
    }
  ],
  "info" : {
    "version" : 1,
    "author" : "xcode"
  }
}